{
    "version": "https://jsonfeed.org/version/1",
    "title": {{ .Site.Title | jsonify  }},
    "home_page_url": {{ .Permalink | jsonify }},
    {{ with  .OutputFormats.Get "jsonfeed" -}}
    "feed_url": {{ .Permalink | jsonify  }},
    {{- end }}
    {{ if or (.Site.Params.author) (.Site.Params.author_url) -}}
    "author": {
        {{ if .Site.Params.author -}}
        "name": {{ .Site.Params.author | jsonify }}{{- end }}{{ if .Site.Params.author_url -}},
        "url": {{ .Site.Params.author_url | jsonify }}{{- end }}{{ with .Site.Params.avatar -}},
        "avatar": {{ . | absURL | jsonify }}{{- end}}
    },
    {{- end }}
    {{ with .Site.Params.logo -}}
    "icon": {{ . | absURL | jsonify }},
    {{- end}}
    {{ if .Data.Pages }}
    "items": [
        {{ range $index, $element := first 10 .Data.Pages }}
        {{if $index }},{{end}} {
            "id": {{ $element.Permalink | jsonify }},
            "url": {{ $element.Permalink | jsonify }},
            "title": {{ $element.Title | jsonify }},
            "content_html": {{ $element.Content | jsonify }},
            "date_published": {{ $element.Date.Format "2006-01-02T15:04:05-07:00" | jsonify }}{{ with $element.Params.banner }},
            "image": {{ . | absURL | jsonify }}{{end}}
        }
        {{ end }}
    ]
    {{ end }}
}
